^C:\USERS\CSIE\SOURCE\REPOS\ARBOR\ARBOR\SOURCE.CPP
C:\USERS\CSIE\SOURCE\REPOS\ARBOR\ARBOR\DEBUG\VC141.PDB
C:\USERS\CSIE\SOURCE\REPOS\ARBOR\ARBOR\DEBUG\VC141.IDB
C:\USERS\CSIE\SOURCE\REPOS\ARBOR\ARBOR\DEBUG\SOURCE.OBJ
